lab1/results/rtl.vcd
$date
	Mon Mar 16 20:20:45 2026
$end
$version
	Icarus Verilog
$end
$timescale
	1ps
$end
$scope module tb_registered_adder $end
$var wire 8 ! sum [7:0] $end
$var wire 1 " cout $end
$var parameter 32 # CLK_PERIOD $end
$var parameter 32 $ WIDTH $end
$var reg 8 % a [7:0] $end
$var reg 8 & b [7:0] $end
$var reg 1 ' cin $end
$var reg 1 ( clk $end
$var reg 1 ) rst_n $end
$var integer 32 * errors [31:0] $end
$var integer 32 + tests [31:0] $end
$scope module dut $end
$var wire 8 , a [7:0] $end
$var wire 8 - b [7:0] $end
$var wire 1 ' cin $end
$var wire 1 ( clk $end
$var wire 1 ) rst_n $end
$var wire 9 . result [8:0] $end
$var parameter 32 / WIDTH $end
$var reg 8 0 a_r [7:0] $end
$var reg 8 1 b_r [7:0] $end
$var reg 1 2 cin_r $end
$var reg 1 " cout $end
$var reg 8 3 sum [7:0] $end
$upscope $end
$scope task apply_and_check $end
$var reg 1 4 exp_cout $end
$var reg 8 5 exp_sum [7:0] $end
$var reg 8 6 in_a [7:0] $end
$var reg 8 7 in_b [7:0] $end
$var reg 1 8 in_cin $end
$upscope $end
$upscope $end
$enddefinitions $end
$comment Show the parameter values. $end
$dumpall
b1000 /
b1000 $
b1010 #
$end
#0
$dumpvars
x8
bx 7
bx 6
bx 5
x4
bx 3
x2
bx 1
bx 0
bx .
b0 -
b0 ,
b0 +
b0 *
0)
0(
0'
b0 &
b0 %
x"
bx !
$end
#5000
b0 .
02
b0 1
b0 0
0"
b0 !
b0 3
1(
#10000
0(
#15000
1(
#20000
0(
#25000
1(
#26000
04
b0 5
08
b0 7
b0 6
1)
#30000
0(
#35000
1(
#40000
0(
#45000
1(
#46000
b11110 5
b10100 7
b1010 6
b1 +
#50000
b10100 &
b10100 -
b1010 %
b1010 ,
0(
#55000
b11110 .
b10100 1
b1010 0
1(
#60000
0(
#65000
b11110 !
b11110 3
1(
#66000
b10011011 5
b110111 7
b1100100 6
b10 +
#70000
b110111 &
b110111 -
b1100100 %
b1100100 ,
0(
#75000
b10011011 .
b110111 1
b1100100 0
1(
#80000
0(
#85000
b10011011 !
b10011011 3
1(
#86000
b11111111 5
18
b1111111 7
b1111111 6
b11 +
#90000
1'
b1111111 &
b1111111 -
b1111111 %
b1111111 ,
0(
#95000
b11111111 .
12
b1111111 1
b1111111 0
1(
#100000
0(
#105000
b11111111 !
b11111111 3
1(
#106000
14
b0 5
08
b1 7
b11111111 6
b100 +
#110000
0'
b1 &
b1 -
b11111111 %
b11111111 ,
0(
#115000
b100000000 .
02
b1 1
b11111111 0
1(
#120000
0(
#125000
1"
b0 !
b0 3
1(
#126000
b101100 5
b1100100 7
b11001000 6
b101 +
#130000
b1100100 &
b1100100 -
b11001000 %
b11001000 ,
0(
#135000
b100101100 .
b1100100 1
b11001000 0
1(
#140000
0(
#145000
b101100 !
b101100 3
1(
#146000
b11111111 5
18
b11111111 7
b11111111 6
b110 +
#150000
1'
b11111111 &
b11111111 -
b11111111 %
b11111111 ,
0(
#155000
b111111111 .
12
b11111111 1
b11111111 0
1(
#160000
0(
#165000
b11111111 !
b11111111 3
1(
#166000
b111 +
#170000
b1100011 &
b1100011 -
b1100011 %
b1100011 ,
0)
0(
#175000
b0 .
0"
b0 !
b0 3
02
b0 1
b0 0
1(
#180000
0(
#185000
1(
#186000
04
b1100100 5
08
b111010 7
b101010 6
1)
b1000 +
#190000
0'
b111010 &
b111010 -
b101010 %
b101010 ,
0(
#195000
b1100100 .
b111010 1
b101010 0
1(
#200000
0(
#205000
b1100100 !
b1100100 3
1(
#206000
b1001 +
